Ingresos tributarios totales como % del PIB.
unidad: % PIB

Pais,1990,1991,1992,1993,1994,1995,1996,1997,1998,1999,2000,2001,2002,2003,2004,2005,2006,2007,2008,2009,2010,2011,2012,2013,2014,2015,2016,2017
Argentina,14,16,18,20,20,19,18,19,19,20,20,19,18,22,24,25,25,26,28,29,29,29,31,31,31,32,31,0
Bolivia (Estado Plurinacional de),8,9,11,12,13,14,14,14,16,15,18,17,17,16,19,20,19,20,21,22,20,22,24,25,26,28,26,0
Brasil,26,21,22,23,26,27,26,26,27,28,30,31,31,31,32,33,35,35,34,32,32,33,32,32,32,32,32,0
Chile,17,18,18,19,18,18,20,19,19,18,19,19,19,19,19,21,22,23,21,17,20,21,21,20,20,21,20,0
Colombia,11,12,13,13,15,15,16,16,15,15,15,16,16,17,17,18,19,19,19,19,18,19,20,20,20,21,20,0
Costa Rica,21,17,18,18,18,17,18,19,19,18,18,19,20,20,20,20,20,22,23,21,21,21,21,22,22,23,22,0
Cuba,29,29,32,30,33,33,32,34,36,37,37,36,37,37,36,41,46,45,42,41,38,38,40,37,37,39,42,0
Ecuador,7,7,7,8,8,8,7,8,9,9,10,12,13,12,12,12,13,13,14,15,17,18,20,20,19,21,20,0
El Salvador,11,11,11,12,12,13,12,12,12,12,12,12,13,13,13,14,15,15,15,15,15,16,16,17,17,17,18,0
Guatemala,9,9,11,10,9,10,11,11,11,12,12,13,14,14,13,13,14,14,13,12,12,13,13,13,13,12,13,0
Haití,0,0,0,0,0,0,0,0,0,0,0,0,0,0,0,0,0,0,0,0,0,0,0,0,0,0,0,0
Honduras,16,17,18,17,16,18,17,16,19,19,15,15,16,16,17,17,18,19,19,17,17,17,18,18,20,20,21,0
México,12,13,13,13,13,11,11,12,12,13,13,14,14,14,12,12,12,13,13,13,13,13,13,14,14,16,17,0
Nicaragua,0,10,11,10,11,11,11,12,13,13,13,13,13,15,15,16,17,17,17,17,19,20,21,21,22,22,23,0
Panamá,16,16,16,17,17,18,16,16,16,16,16,15,14,14,14,14,15,16,16,16,17,16,17,17,16,16,17,0
Paraguay,6,5,7,9,11,12,11,11,11,12,13,12,11,12,13,14,14,14,15,16,16,17,18,16,18,18,18,0
Perú,12,13,15,14,15,16,16,17,16,15,15,15,15,16,16,16,18,18,19,17,18,19,19,19,19,17,16,13
República Dominicana,8,7,10,10,9,10,10,11,11,11,11,12,12,11,10,12,14,15,14,13,12,12,13,14,14,14,14,0
Uruguay,20,20,21,21,21,21,21,22,22,22,22,22,21,21,23,24,25,25,26,26,26,27,27,27,27,27,28,0
Venezuela (República Bolivariana de),18,18,14,14,14,13,14,18,13,14,14,12,11,12,13,16,16,17,14,14,12,13,14,14,19,21,14,0
Media,14.5,14.11,15.05,15.26,15.74,16,15.84,16.47,16.63,16.79,17,17.05,17.11,17.47,17.79,18.84,19.84,20.32,20.16,19.58,19.58,20.21,20.95,20.89,21.37,21.95,21.68,13

fuentes: 
Todos los países: 1990-2016. OECD.Stat (consultado el 21 de abril de 2018).. 
Perú 2017. . https://estadisticas.bcrp.gob.pe/estadisticas/series/anuales/resultados/PM05876FA/html
