<?xml version="1.0" encoding="utf-8"?>
<!-- Generator: Adobe Illustrator 22.1.0, SVG Export Plug-In . SVG Version: 6.00 Build 0)  -->
<svg version="1.1" id="Layer_1" xmlns="http://www.w3.org/2000/svg" xmlns:xlink="http://www.w3.org/1999/xlink" x="0px" y="0px"
	 viewBox="0 0 24 21" style="enable-background:new 0 0 24 21;" xml:space="preserve">
<style type="text/css">
	.st0{fill:#FFFFFF;}
</style>
<title>Group 26 Copy</title>
<desc>Created with Sketch.</desc>
<path class="st0" d="M12,0C6.2,0,1.5,4.7,1.5,10.5S6.2,21,12,21s10.5-4.7,10.5-10.5S17.8,0,12,0z M20.4,10.5c0,4.6-3.8,8.4-8.4,8.4
	c-4.6,0-8.4-3.8-8.4-8.4c0-4.6,3.8-8.4,8.4-8.4C16.6,2.1,20.4,5.9,20.4,10.5z"/>
<polygon class="st0" points="14.4,5.4 13.2,6.6 14.5,7.9 5.7,7.9 5.7,9.6 16.2,9.6 18.6,9.6 16.9,7.9 "/>
<polygon class="st0" points="5.3,11.4 7,13.1 7,13.1 9.5,15.6 10.7,14.4 9.5,13.1 18.3,13.1 18.3,11.4 7.8,11.4 "/>
</svg>
