<?xml version="1.0" encoding="utf-8"?>
<!-- Generator: Adobe Illustrator 22.1.0, SVG Export Plug-In . SVG Version: 6.00 Build 0)  -->
<svg version="1.1" id="Layer_1" xmlns="http://www.w3.org/2000/svg" xmlns:xlink="http://www.w3.org/1999/xlink" x="0px" y="0px"
	 viewBox="0 0 110 22" style="enable-background:new 0 0 110 22;" xml:space="preserve">
<style type="text/css">
	.st0{fill:#FFFFFF;}
</style>
<title>stellar_logo white</title>
<desc>Created with Sketch.</desc>
<g>
	<path class="st0" d="M30.3,6.7c-0.8-0.5-1.8-0.7-3-0.7h-2.8v9.5h3.3c0.9,0,1.7-0.2,2.4-0.6c0.7-0.4,1.3-0.9,1.7-1.6
		c0.4-0.7,0.6-1.5,0.6-2.4c0-0.9-0.2-1.7-0.5-2.4C31.7,7.8,31.1,7.2,30.3,6.7z M29.8,13c-0.6,0.5-1.3,0.7-2.3,0.7h-1.1V7.8h1.5
		c0.4,0,0.8,0.1,1.2,0.3c0.4,0.2,0.8,0.5,1.1,0.9c0.3,0.4,0.5,1.1,0.5,1.8C30.6,11.8,30.3,12.5,29.8,13z"/>
	<path class="st0" d="M38.4,10.5c-0.2-0.3-0.5-0.5-0.8-0.6c-0.3-0.2-0.7-0.2-1.2-0.2c-0.5,0-0.9,0.1-1.4,0.4c-0.4,0.3-0.8,0.6-1,1.1
		c-0.3,0.5-0.4,1-0.4,1.6c0,1,0.3,1.7,0.8,2.2c0.5,0.5,1.2,0.7,2,0.7c0.7,0,1.3-0.3,1.9-0.9v0.7h1.8V9.9h-1.7L38.4,10.5z M38.4,13.4
		c-0.3,0.6-0.7,0.9-1.4,0.9c-0.3,0-0.5-0.1-0.7-0.2c-0.2-0.1-0.4-0.3-0.5-0.6c-0.1-0.2-0.2-0.5-0.2-0.8c0-0.4,0.1-0.8,0.4-1.1
		c0.3-0.3,0.6-0.4,1-0.4c0.3,0,0.6,0.1,0.9,0.2c0.3,0.2,0.4,0.4,0.5,0.7V13.4z"/>
	<polygon class="st0" points="44.4,7.4 42.6,7.4 42.6,9.9 41.7,9.9 41.7,11.3 42.6,11.3 42.6,15.5 44.4,15.5 44.4,11.3 45.8,11.3 
		45.8,9.9 44.4,9.9 	"/>
	<path class="st0" d="M51.4,10.5c-0.2-0.3-0.5-0.5-0.8-0.6c-0.3-0.2-0.7-0.2-1.2-0.2c-0.5,0-0.9,0.1-1.4,0.4c-0.4,0.3-0.8,0.6-1,1.1
		c-0.3,0.5-0.4,1-0.4,1.6c0,1,0.3,1.7,0.8,2.2c0.5,0.5,1.2,0.7,2,0.7c0.7,0,1.3-0.3,1.9-0.9v0.7h1.8V9.9h-1.7L51.4,10.5z M51.4,13.4
		c-0.3,0.6-0.7,0.9-1.4,0.9c-0.3,0-0.5-0.1-0.7-0.2c-0.2-0.1-0.4-0.3-0.5-0.6c-0.1-0.2-0.2-0.5-0.2-0.8c0-0.4,0.1-0.8,0.4-1.1
		c0.3-0.3,0.6-0.4,1-0.4c0.3,0,0.6,0.1,0.9,0.2c0.3,0.2,0.4,0.4,0.5,0.7V13.4z"/>
	<rect x="55.4" y="6" class="st0" width="1.9" height="9.5"/>
	<path class="st0" d="M63.9,10.3c-0.2-0.2-0.5-0.4-0.8-0.5c-0.4-0.1-0.8-0.2-1.2-0.2c-0.5,0-1,0.1-1.4,0.4c-0.4,0.3-0.8,0.6-1.1,1.1
		c-0.3,0.5-0.4,1-0.4,1.6c0,0.6,0.1,1.1,0.4,1.5c0.3,0.5,0.6,0.8,1,1.1c0.4,0.3,0.9,0.4,1.4,0.4c0.5,0,1-0.1,1.3-0.3
		c0.4-0.2,0.6-0.4,0.8-0.7v0.8c0,0.4-0.2,0.7-0.5,0.9c-0.3,0.2-0.7,0.3-1.1,0.3c-0.4,0-0.7-0.1-1-0.2c-0.3-0.1-0.5-0.3-0.8-0.6
		l-1.1,1.2c0.3,0.2,0.5,0.4,0.8,0.6c0.2,0.1,0.5,0.3,0.8,0.4c0.3,0.1,0.8,0.2,1.2,0.2c0.6,0,1.2-0.1,1.7-0.4c0.5-0.2,0.9-0.6,1.2-1
		c0.3-0.4,0.5-0.9,0.5-1.5V9.9H64L63.9,10.3z M63.9,13.4c-0.3,0.6-0.8,0.9-1.6,0.9c-0.4,0-0.8-0.2-1.1-0.5c-0.3-0.3-0.5-0.7-0.5-1.1
		c0-0.4,0.2-0.8,0.5-1.1s0.7-0.4,1.1-0.4c0.4,0,0.7,0.1,1,0.2c0.3,0.2,0.5,0.4,0.6,0.7V13.4z"/>
	<path class="st0" d="M71.4,12.2c0,0.6-0.1,1.1-0.4,1.5c-0.2,0.4-0.6,0.6-0.9,0.6c-0.5,0-0.7-0.3-0.8-0.8V9.9h-1.8v4.2
		c0,0.5,0.2,0.9,0.5,1.2c0.3,0.3,0.8,0.5,1.3,0.5c0.5,0,0.9-0.1,1.3-0.3c0.4-0.2,0.6-0.5,0.8-0.9l0.1,0.9h1.6V9.9h-1.8V12.2z"/>
	<path class="st0" d="M79.4,10.5c-0.2-0.3-0.5-0.5-0.8-0.6c-0.3-0.2-0.7-0.2-1.2-0.2c-0.5,0-0.9,0.1-1.4,0.4c-0.4,0.3-0.8,0.6-1,1.1
		c-0.3,0.5-0.4,1-0.4,1.6c0,1,0.3,1.7,0.8,2.2c0.5,0.5,1.2,0.7,2,0.7c0.7,0,1.3-0.3,1.9-0.9v0.7h1.8V9.9h-1.7L79.4,10.5z M79.4,13.4
		c-0.3,0.6-0.7,0.9-1.4,0.9c-0.3,0-0.5-0.1-0.7-0.2c-0.2-0.1-0.4-0.3-0.5-0.6c-0.1-0.2-0.2-0.5-0.2-0.8c0-0.4,0.1-0.8,0.4-1.1
		c0.3-0.3,0.6-0.4,1-0.4c0.3,0,0.6,0.1,0.9,0.2c0.3,0.2,0.4,0.4,0.5,0.7V13.4z"/>
	<rect x="83" y="5.3" class="st0" width="1.8" height="10.2"/>
	<path class="st0" d="M91.1,10.3c-0.2-0.2-0.5-0.4-0.8-0.5c-0.3-0.1-0.7-0.2-1-0.2c-0.6,0-1.1,0.1-1.5,0.4c-0.4,0.2-0.8,0.6-1.1,1
		c-0.3,0.5-0.4,1-0.4,1.6c0,0.6,0.1,1.2,0.4,1.6c0.2,0.5,0.6,0.8,1,1.1c0.4,0.3,0.9,0.4,1.4,0.4c0.7,0,1.4-0.3,2.1-0.7v0.6h1.8V5.3
		h-1.8V10.3z M91.1,13.3c-0.2,0.3-0.4,0.5-0.6,0.6c-0.2,0.1-0.5,0.2-0.9,0.2c-0.3,0-0.5-0.1-0.7-0.2c-0.2-0.1-0.4-0.3-0.5-0.6
		c-0.1-0.2-0.2-0.5-0.2-0.8c0-0.4,0.1-0.8,0.4-1.1c0.3-0.3,0.6-0.4,1.1-0.4c0.4,0,0.7,0.1,0.9,0.2c0.3,0.2,0.5,0.4,0.6,0.7V13.3z"/>
	<path class="st0" d="M99,10.5c-0.2-0.3-0.5-0.5-0.8-0.6c-0.3-0.2-0.7-0.2-1.2-0.2c-0.5,0-0.9,0.1-1.4,0.4c-0.4,0.3-0.8,0.6-1,1.1
		c-0.3,0.5-0.4,1-0.4,1.6c0,1,0.3,1.7,0.8,2.2c0.5,0.5,1.2,0.7,2,0.7c0.7,0,1.3-0.3,1.9-0.9v0.7h1.8V9.9h-1.7L99,10.5z M99,13.4
		c-0.3,0.6-0.7,0.9-1.4,0.9c-0.3,0-0.5-0.1-0.7-0.2c-0.2-0.1-0.4-0.3-0.6-0.6c-0.1-0.2-0.2-0.5-0.2-0.8c0-0.4,0.1-0.8,0.4-1.1
		c0.3-0.3,0.6-0.4,1-0.4c0.3,0,0.6,0.1,0.9,0.2c0.3,0.2,0.4,0.4,0.5,0.7V13.4z"/>
	<path class="st0" d="M107.1,5.3v4.9c-0.2-0.2-0.5-0.4-0.8-0.5c-0.3-0.1-0.7-0.2-1-0.2c-0.6,0-1.1,0.1-1.5,0.4
		c-0.4,0.2-0.8,0.6-1.1,1c-0.3,0.5-0.4,1-0.4,1.6c0,0.6,0.1,1.2,0.4,1.6c0.2,0.5,0.6,0.8,1,1.1c0.4,0.3,0.9,0.4,1.4,0.4
		c0.7,0,1.4-0.3,2.1-0.7v0.6h1.8V5.3H107.1z M107.1,13.3c-0.2,0.3-0.4,0.5-0.6,0.6c-0.2,0.1-0.5,0.2-0.9,0.2c-0.3,0-0.5-0.1-0.7-0.2
		c-0.2-0.1-0.4-0.3-0.5-0.6c-0.1-0.2-0.2-0.5-0.2-0.8c0-0.4,0.1-0.8,0.4-1.1c0.3-0.3,0.6-0.4,1.1-0.4c0.4,0,0.7,0.1,0.9,0.2
		c0.3,0.2,0.5,0.4,0.6,0.7V13.3z"/>
	<path class="st0" d="M11.9,1C6.3,1,1.8,5.5,1.8,11.1s4.5,10.1,10.1,10.1S22,16.7,22,11.1S17.4,1,11.9,1z M19.9,11.1
		c0,4.4-3.6,8.1-8.1,8.1c-4.4,0-8.1-3.6-8.1-8.1c0-4.4,3.6-8.1,8.1-8.1C16.3,3.1,19.9,6.7,19.9,11.1z"/>
	<polygon class="st0" points="14.2,6.2 13,7.4 14.2,8.6 5.8,8.6 5.8,10.3 15.9,10.3 18.2,10.3 16.6,8.6 	"/>
	<polygon class="st0" points="5.4,12 7.1,13.6 7.1,13.6 9.5,16 10.6,14.8 9.5,13.6 17.9,13.6 17.9,12 7.8,12 	"/>
</g>
</svg>
